{
	"info": {
		"_postman_id": "a55b42fd-08d3-45cb-a746-7b4896057edc",
		"name": "node",
		"schema": "https://schema.getpostman.com/json/collection/v2.1.0/collection.json"
	},
	"item": [
		{
			"_postman_id": "ca1e3cfc-f808-44e2-b689-e84dedadc6d5",
			"name": "localhost:1337/api/UserRegistration",
			"request": {
				"method": "POST",
				"header": [],
				"body": {
					"mode": "formdata",
					"formdata": [
						{
							"key": "name",
							"value": "atree1",
							"sessionValue": "atri",
							"type": "text"
						},
						{
							"key": "email",
							"value": "atei@gmail.com",
							"sessionValue": "atri@gmail.com",
							"type": "text"
						},
						{
							"key": "number",
							"value": "2122222",
							"sessionValue": "21222222",
							"type": "text"
						},
						{
							"key": "password",
							"value": "11223344",
							"sessionValue": "11223344",
							"type": "text"
						},
						{
							"key": "address",
							"value": "gna",
							"sessionValue": "ahmedabad",
							"type": "text"
						},
						{
							"key": "age",
							"value": "20",
							"sessionValue": "23",
							"type": "text"
						}
					]
				},
				"url": {
					"raw": "localhost:1337/api/UserRegistration",
					"host": [
						"localhost"
					],
					"port": "1337",
					"path": [
						"api",
						"UserRegistration"
					]
				}
			},
			"response": []
		},
		{
			"_postman_id": "01a7f62f-9572-4937-83b4-4ef7ac132d1d",
			"name": "localhost:1337/api/UserRegistration",
			"request": {
				"method": "GET",
				"header": [],
				"body": {},
				"url": {
					"raw": "localhost:1337/api/UserRegistration",
					"host": [
						"localhost"
					],
					"port": "1337",
					"path": [
						"api",
						"UserRegistration"
					]
				}
			},
			"response": []
		},
		{
			"_postman_id": "004cf717-5a33-44a7-a74b-1051f72f4c8c",
			"name": "localhost:1337/api/UserRegistration/2",
			"request": {
				"method": "DELETE",
				"header": [],
				"body": {},
				"url": {
					"raw": "localhost:1337/api/UserRegistration/2",
					"host": [
						"localhost"
					],
					"port": "1337",
					"path": [
						"api",
						"UserRegistration",
						"2"
					]
				}
			},
			"response": []
		},
		{
			"_postman_id": "c064b426-9fd4-475d-9563-3e1f5f61fa04",
			"name": "localhost:1337/api/UserRegistration/1",
			"request": {
				"method": "PUT",
				"header": [],
				"body": {
					"mode": "formdata",
					"formdata": [
						{
							"key": "name",
							"value": "atree1",
							"type": "text"
						},
						{
							"key": "email",
							"value": "atei@gmail.com",
							"type": "text"
						},
						{
							"key": "number",
							"value": "2122222",
							"type": "text"
						},
						{
							"key": "password",
							"value": "11223344",
							"type": "text"
						},
						{
							"key": "address",
							"value": "maninagr",
							"type": "text"
						},
						{
							"key": "age",
							"value": "22",
							"type": "text"
						}
					]
				},
				"url": {
					"raw": "localhost:1337/api/UserRegistration/1",
					"host": [
						"localhost"
					],
					"port": "1337",
					"path": [
						"api",
						"UserRegistration",
						"1"
					]
				}
			},
			"response": []
		},
		{
			"_postman_id": "7b672a39-ceee-4408-8ec9-cee72f3ea32e",
			"name": "localhost:1337/api/login/",
			"request": {
				"method": "POST",
				"header": [],
				"body": {
					"mode": "formdata",
					"formdata": [
						{
							"key": "email",
							"value": "atei@gmail.com",
							"sessionValue": "a@gmail.com",
							"type": "text"
						},
						{
							"key": "password",
							"value": "11223344",
							"sessionValue": "22222",
							"type": "text"
						}
					]
				},
				"url": {
					"raw": "localhost:1337/api/login/",
					"host": [
						"localhost"
					],
					"port": "1337",
					"path": [
						"api",
						"login",
						""
					]
				}
			},
			"response": []
		},
		{
			"_postman_id": "6c58e3e6-aecc-4dc5-bf81-f6398de7434e",
			"name": "localhost:1337/api/Product",
			"request": {
				"method": "POST",
				"header": [],
				"body": {
					"mode": "formdata",
					"formdata": [
						{
							"key": "productname",
							"value": "Bike",
							"sessionValue": "MTB",
							"type": "text"
						},
						{
							"key": "days",
							"value": "7",
							"sessionValue": "7",
							"type": "text"
						},
						{
							"key": "price",
							"value": "5000",
							"sessionValue": "1000",
							"type": "text"
						},
						{
							"key": "productqty",
							"value": "10",
							"sessionValue": "10",
							"type": "text"
						}
					]
				},
				"url": {
					"raw": "localhost:1337/api/Product",
					"host": [
						"localhost"
					],
					"port": "1337",
					"path": [
						"api",
						"Product"
					]
				}
			},
			"response": []
		},
		{
			"_postman_id": "b9285386-ef4f-41fd-9ca7-c70d82caefae",
			"name": "localhost:1337/api/Product",
			"request": {
				"method": "GET",
				"header": [],
				"body": {},
				"url": {
					"raw": "localhost:1337/api/Product",
					"host": [
						"localhost"
					],
					"port": "1337",
					"path": [
						"api",
						"Product"
					]
				}
			},
			"response": []
		},
		{
			"_postman_id": "3bfc66b9-44df-45a3-9d21-f60d519aea81",
			"name": "localhost:1337/api/Product",
			"request": {
				"method": "GET",
				"header": [],
				"body": {},
				"url": {
					"raw": "localhost:1337/api/Product",
					"host": [
						"localhost"
					],
					"port": "1337",
					"path": [
						"api",
						"Product"
					]
				}
			},
			"response": []
		},
		{
			"_postman_id": "29a7b2fc-68dc-460b-8082-dca5f957e3f2",
			"name": "localhost:1337/api/Product/4",
			"request": {
				"method": "PUT",
				"header": [],
				"body": {
					"mode": "formdata",
					"formdata": [
						{
							"key": "productname",
							"value": "Bike",
							"type": "text"
						},
						{
							"key": "days",
							"value": "5",
							"type": "text"
						},
						{
							"key": "price",
							"value": "300",
							"type": "text"
						},
						{
							"key": "productqty",
							"value": "1",
							"type": "text"
						}
					]
				},
				"url": {
					"raw": "localhost:1337/api/Product/4",
					"host": [
						"localhost"
					],
					"port": "1337",
					"path": [
						"api",
						"Product",
						"4"
					]
				}
			},
			"response": []
		},
		{
			"_postman_id": "b6c51475-1635-4a27-9146-2be483656a7f",
			"name": "localhost:1337/api/Product/4",
			"request": {
				"method": "DELETE",
				"header": [],
				"body": {},
				"url": {
					"raw": "localhost:1337/api/Product/4",
					"host": [
						"localhost"
					],
					"port": "1337",
					"path": [
						"api",
						"Product",
						"4"
					]
				}
			},
			"response": []
		},
		{
			"_postman_id": "2d15a78f-a2dc-4cd7-a4ad-2f1ccbf9cb3c",
			"name": "localhost:1337/api/UserRequest",
			"request": {
				"method": "POST",
				"header": [],
				"body": {
					"mode": "formdata",
					"formdata": [
						{
							"key": "userid",
							"value": "1",
							"sessionValue": "1",
							"description": "user id",
							"type": "text"
						},
						{
							"key": "productid",
							"value": "1",
							"sessionValue": "1",
							"description": "product id",
							"type": "text"
						}
					]
				},
				"url": {
					"raw": "localhost:1337/api/us",
					"host": [
						"localhost"
					],
					"port": "1337",
					"path": [
						"api",
						"us"
					]
				}
			},
			"response": []
		},
		{
			"_postman_id": "aea27d8f-4065-4f9f-b69a-058aa6a90cd8",
			"name": "localhost:1337/api/RequestList",
			"request": {
				"method": "GET",
				"header": [],
				"body": {},
				"url": {
					"raw": "localhost:1337/api/RequestList",
					"host": [
						"localhost"
					],
					"port": "1337",
					"path": [
						"api",
						"RequestList"
					]
				}
			},
			"response": []
		},
		{
			"_postman_id": "11d8c87d-7958-4b67-984e-07718e325be5",
			"name": "localhost:1337/api/RequestUpdate/1",
			"request": {
				"method": "PUT",
				"header": [],
				"body": {
					"mode": "formdata",
					"formdata": [
						{
							"key": "status",
							"value": "2",
							"sessionValue": "2",
							"description": "1 - pendding , 2 - accepted , 3 - rejected",
							"type": "text"
						},
						{
							"key": "id",
							"value": "1",
							"sessionValue": "1",
							"type": "text",
							"disabled": true
						}
					]
				},
				"url": {
					"raw": "localhost:1337/api/RequestUpdate/1",
					"host": [
						"localhost"
					],
					"port": "1337",
					"path": [
						"api",
						"RequestUpdate",
						"1"
					]
				}
			},
			"response": []
		},
		{
			"_postman_id": "01a95070-09f3-44af-8a1e-ffb48067828f",
			"name": "localhost:1337/api/RequestCancel/1",
			"request": {
				"method": "DELETE",
				"header": [],
				"body": {},
				"url": {
					"raw": "localhost:1337/api/RequestCancel/1",
					"host": [
						"localhost"
					],
					"port": "1337",
					"path": [
						"api",
						"RequestCancel",
						"1"
					]
				}
			},
			"response": []
		}
	]
}